scope-traces/pwm-for-servo/NewFile90.csv

X,CH1,Start,Increment,
Sequence,Volt,-3.000000e-02,5.000000e-05
0,1.20e-01,
1,-4.00e-02,
2,-4.00e-02,
3,1.20e-01,
4,-4.00e-02,
5,1.20e-01,
6,1.20e-01,
7,-4.00e-02,
8,-4.00e-02,
9,1.20e-01,
10,1.20e-01,
11,-4.00e-02,
12,-4.00e-02,
13,1.60e-01,
14,-4.00e-02,
15,1.60e-01,
16,1.20e-01,
17,-4.00e-02,
18,1.20e-01,
19,-4.00e-02,
20,1.20e-01,
21,-4.00e-02,
22,-4.00e-02,
23,1.20e-01,
24,1.20e-01,
25,-4.00e-02,
26,-4.00e-02,
27,1.20e-01,
28,-4.00e-02,
29,1.20e-01,
30,-4.00e-02,
31,1.20e-01,
32,-4.00e-02,
33,1.20e-01,
34,1.20e-01,
35,-4.00e-02,
36,1.20e-01,
37,-4.00e-02,
38,-4.00e-02,
39,1.20e-01,
40,-4.00e-02,
41,1.20e-01,
42,-4.00e-02,
43,1.60e-01,
44,1.20e-01,
45,-4.00e-02,
46,-4.00e-02,
47,1.20e-01,
48,-4.00e-02,
49,1.20e-01,
50,1.20e-01,
51,-4.00e-02,
52,1.20e-01,
53,-4.00e-02,
54,1.20e-01,
55,-4.00e-02,
56,-4.00e-02,
57,1.20e-01,
58,1.20e-01,
59,-4.00e-02,
60,1.20e-01,
61,-4.00e-02,
62,1.20e-01,
63,-4.00e-02,
64,-4.00e-02,
65,1.20e-01,
66,-4.00e-02,
67,1.60e-01,
68,-4.00e-02,
69,1.60e-01,
70,1.20e-01,
71,-4.00e-02,
72,-4.00e-02,
73,1.20e-01,
74,1.20e-01,
75,-4.00e-02,
76,-4.00e-02,
77,1.20e-01,
78,1.20e-01,
79,-4.00e-02,
80,-4.00e-02,
81,1.20e-01,
82,-4.00e-02,
83,1.20e-01,
84,-4.00e-02,
85,1.20e-01,
86,1.20e-01,
87,-4.00e-02,
88,1.20e-01,
89,-4.00e-02,
90,-4.00e-02,
91,1.20e-01,
92,-4.00e-02,
93,1.20e-01,
94,-4.00e-02,
95,1.20e-01,
96,1.20e-01,
97,-4.00e-02,
98,1.20e-01,
99,-4.00e-02,
100,-4.00e-02,
101,1.20e-01,
102,-4.00e-02,
103,1.20e-01,
104,-4.00e-02,
105,1.20e-01,
106,-4.00e-02,
107,1.20e-01,
108,-4.00e-02,
109,1.20e-01,
110,-4.00e-02,
111,1.20e-01,
112,1.20e-01,
113,-4.00e-02,
114,1.20e-01,
115,-4.00e-02,
116,-4.00e-02,
117,1.20e-01,
118,-4.00e-02,
119,1.20e-01,
120,-4.00e-02,
121,1.20e-01,
122,1.20e-01,
123,-4.00e-02,
124,1.20e-01,
125,-4.00e-02,
126,-4.00e-02,
127,1.20e-01,
128,-4.00e-02,
129,1.20e-01,
130,-4.00e-02,
131,1.60e-01,
132,1.20e-01,
133,-4.00e-02,
134,1.20e-01,
135,-4.00e-02,
136,1.20e-01,
137,-4.00e-02,
138,1.20e-01,
139,-4.00e-02,
140,1.20e-01,
141,-4.00e-02,
142,1.20e-01,
143,-4.00e-02,
144,1.20e-01,
145,-4.00e-02,
146,-4.00e-02,
147,1.20e-01,
148,1.20e-01,
149,-4.00e-02,
150,-4.00e-02,
151,1.20e-01,
152,-4.00e-02,
153,1.20e-01,
154,-4.00e-02,
155,1.20e-01,
156,1.20e-01,
157,-4.00e-02,
158,-4.00e-02,
159,1.20e-01,
160,-4.00e-02,
161,1.20e-01,
162,-4.00e-02,
163,1.20e-01,
164,1.20e-01,
165,-4.00e-02,
166,1.20e-01,
167,-4.00e-02,
168,1.20e-01,
169,-4.00e-02,
170,-4.00e-02,
171,1.20e-01,
172,-4.00e-02,
173,1.20e-01,
174,1.20e-01,
175,-4.00e-02,
176,1.20e-01,
177,-4.00e-02,
178,-4.00e-02,
179,1.20e-01,
180,-4.00e-02,
181,1.20e-01,
182,1.20e-01,
183,-4.00e-02,
184,1.20e-01,
185,-4.00e-02,
186,-4.00e-02,
187,1.20e-01,
188,-4.00e-02,
189,1.20e-01,
190,1.20e-01,
191,-4.00e-02,
192,-4.00e-02,
193,1.20e-01,
194,-4.00e-02,
195,1.60e-01,
196,1.20e-01,
197,-4.00e-02,
198,1.20e-01,
199,-4.00e-02,
200,4.00e-02,
201,6.56e+00,
202,5.12e+00,
203,4.88e+00,
204,5.12e+00,
205,4.92e+00,
206,5.12e+00,
207,4.92e+00,
208,4.92e+00,
209,5.16e+00,
210,4.92e+00,
211,5.16e+00,
212,4.92e+00,
213,5.20e+00,
214,4.92e+00,
215,5.16e+00,
216,5.20e+00,
217,4.92e+00,
218,5.20e+00,
219,4.92e+00,
220,4.92e+00,
221,5.20e+00,
222,5.16e+00,
223,4.92e+00,
224,5.20e+00,
225,4.92e+00,
226,5.20e+00,
227,4.92e+00,
228,5.20e+00,
229,-6.40e-01,
230,0.00e+00,
231,1.60e-01,
232,0.00e+00,
233,1.60e-01,
234,4.00e-02,
235,1.60e-01,
236,1.60e-01,
237,0.00e+00,
238,1.60e-01,
239,-4.00e-02,
240,0.00e+00,
241,1.60e-01,
242,0.00e+00,
243,1.20e-01,
244,0.00e+00,
245,1.20e-01,
246,1.20e-01,
247,-4.00e-02,
248,-4.00e-02,
249,1.20e-01,
250,1.20e-01,
251,-4.00e-02,
252,1.20e-01,
253,-4.00e-02,
254,-4.00e-02,
255,1.20e-01,
256,-4.00e-02,
257,1.20e-01,
258,-4.00e-02,
259,1.20e-01,
260,-4.00e-02,
261,1.20e-01,
262,-4.00e-02,
263,1.20e-01,
264,-4.00e-02,
265,1.20e-01,
266,-4.00e-02,
267,1.20e-01,
268,-4.00e-02,
269,1.20e-01,
270,1.20e-01,
271,-4.00e-02,
272,-4.00e-02,
273,1.20e-01,
274,-4.00e-02,
275,1.20e-01,
276,1.20e-01,
277,-4.00e-02,
278,-4.00e-02,
279,1.20e-01,
280,-4.00e-02,
281,8.00e-02,
282,1.20e-01,
283,-4.00e-02,
284,-4.00e-02,
285,1.20e-01,
286,1.20e-01,
287,-4.00e-02,
288,-4.00e-02,
289,8.00e-02,
290,-4.00e-02,
291,1.20e-01,
292,-4.00e-02,
293,1.20e-01,
294,-4.00e-02,
295,1.20e-01,
296,-4.00e-02,
297,1.20e-01,
298,-4.00e-02,
299,1.20e-01,
300,-4.00e-02,
301,1.20e-01,
302,-4.00e-02,
303,1.20e-01,
304,-4.00e-02,
305,8.00e-02,
306,-4.00e-02,
307,1.20e-01,
308,1.20e-01,
309,-4.00e-02,
310,-4.00e-02,
311,1.20e-01,
312,-4.00e-02,
313,1.20e-01,
314,-4.00e-02,
315,1.20e-01,
316,-4.00e-02,
317,1.20e-01,
318,-4.00e-02,
319,1.20e-01,
320,-4.00e-02,
321,1.20e-01,
322,-4.00e-02,
323,1.20e-01,
324,-4.00e-02,
325,1.20e-01,
326,1.20e-01,
327,-4.00e-02,
328,-4.00e-02,
329,1.20e-01,
330,-4.00e-02,
331,1.20e-01,
332,1.20e-01,
333,-4.00e-02,
334,1.20e-01,
335,-4.00e-02,
336,-4.00e-02,
337,1.20e-01,
338,-4.00e-02,
339,1.20e-01,
340,1.20e-01,
341,-4.00e-02,
342,-4.00e-02,
343,1.20e-01,
344,-4.00e-02,
345,1.20e-01,
346,-4.00e-02,
347,1.20e-01,
348,-4.00e-02,
349,1.20e-01,
350,-4.00e-02,
351,1.20e-01,
352,1.20e-01,
353,-4.00e-02,
354,-4.00e-02,
355,1.20e-01,
356,-4.00e-02,
357,1.20e-01,
358,1.20e-01,
359,-4.00e-02,
360,1.20e-01,
361,-4.00e-02,
362,-4.00e-02,
363,1.20e-01,
364,1.20e-01,
365,-4.00e-02,
366,1.20e-01,
367,-4.00e-02,
368,1.20e-01,
369,-4.00e-02,
370,-4.00e-02,
371,1.20e-01,
372,-4.00e-02,
373,1.20e-01,
374,1.20e-01,
375,-4.00e-02,
376,-4.00e-02,
377,1.20e-01,
378,-4.00e-02,
379,1.20e-01,
380,-4.00e-02,
381,1.60e-01,
382,1.20e-01,
383,-4.00e-02,
384,-4.00e-02,
385,1.20e-01,
386,-4.00e-02,
387,1.60e-01,
388,1.20e-01,
389,-4.00e-02,
390,-4.00e-02,
391,1.20e-01,
392,1.20e-01,
393,-4.00e-02,
394,1.20e-01,
395,-4.00e-02,
396,1.20e-01,
397,-4.00e-02,
398,1.20e-01,
399,-4.00e-02,
400,-4.00e-02,
401,1.60e-01,
402,1.20e-01,
403,-4.00e-02,
404,1.20e-01,
405,-4.00e-02,
406,1.20e-01,
407,-4.00e-02,
408,-4.00e-02,
409,1.20e-01,
410,1.20e-01,
411,-4.00e-02,
412,1.20e-01,
413,-4.00e-02,
414,-4.00e-02,
415,1.20e-01,
416,1.20e-01,
417,-4.00e-02,
418,1.20e-01,
419,-4.00e-02,
420,1.20e-01,
421,-4.00e-02,
422,-4.00e-02,
423,1.20e-01,
424,-4.00e-02,
425,1.20e-01,
426,-4.00e-02,
427,1.20e-01,
428,1.20e-01,
429,-4.00e-02,
430,-4.00e-02,
431,1.20e-01,
432,-4.00e-02,
433,1.20e-01,
434,1.20e-01,
435,-4.00e-02,
436,1.20e-01,
437,-4.00e-02,
438,1.20e-01,
439,-4.00e-02,
440,1.20e-01,
441,-4.00e-02,
442,-4.00e-02,
443,1.20e-01,
444,-4.00e-02,
445,1.20e-01,
446,1.20e-01,
447,-4.00e-02,
448,1.20e-01,
449,-4.00e-02,
450,1.20e-01,
451,-4.00e-02,
452,-4.00e-02,
453,1.20e-01,
454,1.20e-01,
455,-4.00e-02,
456,1.20e-01,
457,-4.00e-02,
458,-4.00e-02,
459,1.20e-01,
460,1.20e-01,
461,-4.00e-02,
462,1.20e-01,
463,-4.00e-02,
464,1.20e-01,
465,-4.00e-02,
466,1.20e-01,
467,-4.00e-02,
468,-4.00e-02,
469,1.20e-01,
470,1.20e-01,
471,-4.00e-02,
472,-4.00e-02,
473,1.20e-01,
474,1.20e-01,
475,-4.00e-02,
476,1.20e-01,
477,-4.00e-02,
478,-4.00e-02,
479,1.20e-01,
480,1.20e-01,
481,-4.00e-02,
482,-4.00e-02,
483,1.20e-01,
484,1.20e-01,
485,-4.00e-02,
486,1.60e-01,
487,-4.00e-02,
488,-4.00e-02,
489,1.20e-01,
490,1.20e-01,
491,-4.00e-02,
492,1.20e-01,
493,-4.00e-02,
494,-4.00e-02,
495,1.20e-01,
496,-4.00e-02,
497,1.20e-01,
498,-4.00e-02,
499,1.20e-01,
500,1.20e-01,
501,-4.00e-02,
502,-4.00e-02,
503,1.20e-01,
504,-4.00e-02,
505,1.20e-01,
506,-4.00e-02,
507,1.60e-01,
508,1.20e-01,
509,-4.00e-02,
510,-4.00e-02,
511,1.20e-01,
512,-4.00e-02,
513,1.20e-01,
514,-4.00e-02,
515,1.20e-01,
516,1.20e-01,
517,-4.00e-02,
518,1.20e-01,
519,-4.00e-02,
520,-4.00e-02,
521,1.20e-01,
522,-4.00e-02,
523,1.20e-01,
524,1.20e-01,
525,-4.00e-02,
526,1.20e-01,
527,-4.00e-02,
528,1.20e-01,
529,-4.00e-02,
530,-4.00e-02,
531,1.20e-01,
532,1.20e-01,
533,-4.00e-02,
534,-4.00e-02,
535,1.20e-01,
536,1.20e-01,
537,-4.00e-02,
538,-4.00e-02,
539,1.20e-01,
540,-4.00e-02,
541,1.20e-01,
542,1.20e-01,
543,-4.00e-02,
544,-4.00e-02,
545,1.20e-01,
546,-4.00e-02,
547,1.60e-01,
548,1.20e-01,
549,-4.00e-02,
550,1.20e-01,
551,-4.00e-02,
552,1.20e-01,
553,-4.00e-02,
554,-4.00e-02,
555,1.20e-01,
556,-4.00e-02,
557,1.60e-01,
558,-4.00e-02,
559,1.20e-01,
560,-4.00e-02,
561,8.00e-02,
562,1.20e-01,
563,-4.00e-02,
564,1.20e-01,
565,-4.00e-02,
566,1.20e-01,
567,-4.00e-02,
568,1.20e-01,
569,-4.00e-02,
570,1.20e-01,
571,-4.00e-02,
572,-4.00e-02,
573,1.20e-01,
574,-4.00e-02,
575,1.20e-01,
576,1.20e-01,
577,-4.00e-02,
578,1.20e-01,
579,-4.00e-02,
580,1.20e-01,
581,-4.00e-02,
582,-4.00e-02,
583,1.20e-01,
584,-4.00e-02,
585,1.20e-01,
586,1.20e-01,
587,-4.00e-02,
588,-4.00e-02,
589,1.20e-01,
590,-4.00e-02,
591,1.20e-01,
592,1.20e-01,
593,-4.00e-02,
594,1.20e-01,
595,-4.00e-02,
596,1.20e-01,
597,-4.00e-02,
598,1.20e-01,
599,-4.00e-02,
600,5.88e+00,
601,4.88e+00,
602,5.12e+00,
603,4.88e+00,
604,4.92e+00,
605,5.12e+00,
606,5.16e+00,
607,4.92e+00,
608,4.92e+00,
609,5.16e+00,
610,4.92e+00,
611,5.20e+00,
612,4.92e+00,
613,5.16e+00,
614,5.20e+00,
615,4.92e+00,
616,4.92e+00,
617,5.16e+00,
618,4.92e+00,
619,5.20e+00,
620,5.00e+00,
621,5.20e+00,
622,4.92e+00,
623,5.20e+00,
624,4.92e+00,
625,5.20e+00,
626,4.96e+00,
627,5.20e+00,
628,5.16e+00,
629,-8.80e-01,
630,1.60e-01,
631,0.00e+00,
632,0.00e+00,
633,1.60e-01,
634,1.60e-01,
635,0.00e+00,
636,1.60e-01,
637,0.00e+00,
638,1.60e-01,
639,0.00e+00,
640,0.00e+00,
641,1.60e-01,
642,-4.00e-02,
643,1.60e-01,
644,1.20e-01,
645,-4.00e-02,
646,1.20e-01,
647,-4.00e-02,
648,0.00e+00,
649,1.20e-01,
650,1.20e-01,
651,-4.00e-02,
652,-4.00e-02,
653,1.20e-01,
654,-4.00e-02,
655,1.20e-01,
656,-4.00e-02,
657,1.20e-01,
658,1.20e-01,
659,-4.00e-02,
660,-4.00e-02,
661,1.20e-01,
662,-4.00e-02,
663,1.20e-01,
664,-4.00e-02,
665,1.20e-01,
666,-4.00e-02,
667,1.20e-01,
668,-4.00e-02,
669,8.00e-02,
670,-4.00e-02,
671,1.20e-01,
672,-4.00e-02,
673,1.20e-01,
674,-4.00e-02,
675,1.20e-01,
676,-4.00e-02,
677,1.20e-01,
678,-4.00e-02,
679,1.20e-01,
680,-4.00e-02,
681,1.20e-01,
682,-4.00e-02,
683,8.00e-02,
684,1.20e-01,
685,-4.00e-02,
686,-4.00e-02,
687,1.20e-01,
688,-4.00e-02,
689,1.20e-01,
690,-4.00e-02,
691,1.20e-01,
692,-4.00e-02,
693,1.20e-01,
694,-4.00e-02,
695,1.20e-01,
696,1.20e-01,
697,-4.00e-02,
698,-4.00e-02,
699,8.00e-02,
700,-4.00e-02,
701,1.20e-01,
702,-4.00e-02,
703,1.20e-01,
704,-4.00e-02,
705,1.20e-01,
706,-4.00e-02,
707,1.20e-01,
708,-4.00e-02,
709,1.20e-01,
710,-4.00e-02,
711,1.20e-01,
712,-4.00e-02,
713,1.20e-01,
714,-4.00e-02,
715,1.20e-01,
716,-4.00e-02,
717,1.20e-01,
718,-4.00e-02,
719,1.20e-01,
720,1.20e-01,
721,-4.00e-02,
722,-4.00e-02,
723,8.00e-02,
724,-4.00e-02,
725,1.20e-01,
726,-4.00e-02,
727,1.20e-01,
728,1.20e-01,
729,-4.00e-02,
730,1.20e-01,
731,-4.00e-02,
732,-4.00e-02,
733,1.20e-01,
734,-4.00e-02,
735,1.20e-01,
736,-4.00e-02,
737,1.20e-01,
738,-4.00e-02,
739,1.20e-01,
740,-4.00e-02,
741,1.20e-01,
742,-4.00e-02,
743,1.20e-01,
744,-4.00e-02,
745,1.20e-01,
746,1.20e-01,
747,-4.00e-02,
748,-4.00e-02,
749,1.20e-01,
750,-4.00e-02,
751,1.20e-01,
752,1.20e-01,
753,-4.00e-02,
754,1.20e-01,
755,-4.00e-02,
756,1.20e-01,
757,-4.00e-02,
758,-4.00e-02,
759,1.20e-01,
760,1.60e-01,
761,-4.00e-02,
762,1.20e-01,
763,-4.00e-02,
764,1.20e-01,
765,-4.00e-02,
766,1.20e-01,
767,-4.00e-02,
768,-4.00e-02,
769,1.60e-01,
770,1.20e-01,
771,-4.00e-02,
772,1.20e-01,
773,-4.00e-02,
774,1.20e-01,
775,-4.00e-02,
776,1.20e-01,
777,-4.00e-02,
778,-4.00e-02,
779,8.00e-02,
780,1.20e-01,
781,-4.00e-02,
782,1.20e-01,
783,-4.00e-02,
784,1.20e-01,
785,-4.00e-02,
786,1.20e-01,
787,-4.00e-02,
788,1.20e-01,
789,-4.00e-02,
790,1.20e-01,
791,-4.00e-02,
792,1.20e-01,
793,-4.00e-02,
794,1.20e-01,
795,-4.00e-02,
796,1.20e-01,
797,-4.00e-02,
798,-4.00e-02,
799,1.20e-01,
800,-4.00e-02,
801,1.20e-01,
802,-4.00e-02,
803,1.20e-01,
804,-4.00e-02,
805,1.20e-01,
806,-4.00e-02,
807,1.20e-01,
808,1.20e-01,
809,-4.00e-02,
810,-4.00e-02,
811,1.20e-01,
812,-4.00e-02,
813,1.20e-01,
814,1.20e-01,
815,-4.00e-02,
816,1.20e-01,
817,-4.00e-02,
818,1.20e-01,
819,-4.00e-02,
820,-4.00e-02,
821,1.20e-01,
822,1.20e-01,
823,-4.00e-02,
824,-4.00e-02,
825,1.20e-01,
826,-4.00e-02,
827,1.60e-01,
828,-4.00e-02,
829,1.20e-01,
830,1.20e-01,
831,0.00e+00,
832,8.00e-02,
833,-4.00e-02,
834,1.20e-01,
835,-4.00e-02,
836,-4.00e-02,
837,1.20e-01,
838,-4.00e-02,
839,1.20e-01,
840,1.20e-01,
841,-4.00e-02,
842,1.20e-01,
843,-4.00e-02,
844,-4.00e-02,
845,1.20e-01,
846,-4.00e-02,
847,1.20e-01,
848,-4.00e-02,
849,1.20e-01,
850,1.20e-01,
851,-4.00e-02,
852,-4.00e-02,
853,1.60e-01,
854,-4.00e-02,
855,1.20e-01,
856,-4.00e-02,
857,1.20e-01,
858,1.20e-01,
859,-4.00e-02,
860,1.20e-01,
861,-4.00e-02,
862,-4.00e-02,
863,1.20e-01,
864,1.20e-01,
865,-4.00e-02,
866,-4.00e-02,
867,1.20e-01,
868,1.20e-01,
869,-4.00e-02,
870,1.20e-01,
871,-4.00e-02,
872,-4.00e-02,
873,1.20e-01,
874,-4.00e-02,
875,1.60e-01,
876,1.20e-01,
877,-4.00e-02,
878,-4.00e-02,
879,1.20e-01,
880,1.20e-01,
881,-4.00e-02,
882,-4.00e-02,
883,1.20e-01,
884,1.20e-01,
885,-4.00e-02,
886,-4.00e-02,
887,1.20e-01,
888,-4.00e-02,
889,1.20e-01,
890,-4.00e-02,
891,1.20e-01,
892,-4.00e-02,
893,1.60e-01,
894,1.20e-01,
895,-4.00e-02,
896,1.20e-01,
897,-4.00e-02,
898,-4.00e-02,
899,1.20e-01,
900,-4.00e-02,
901,1.20e-01,
902,-4.00e-02,
903,1.20e-01,
904,1.20e-01,
905,-4.00e-02,
906,-4.00e-02,
907,1.20e-01,
908,-4.00e-02,
909,1.20e-01,
910,-4.00e-02,
911,8.00e-02,
912,1.20e-01,
913,-4.00e-02,
914,1.20e-01,
915,-4.00e-02,
916,1.20e-01,
917,-4.00e-02,
918,-4.00e-02,
919,1.20e-01,
920,-4.00e-02,
921,1.20e-01,
922,1.20e-01,
923,-4.00e-02,
924,-4.00e-02,
925,1.20e-01,
926,1.20e-01,
927,-4.00e-02,
928,1.20e-01,
929,-4.00e-02,
930,1.20e-01,
931,-4.00e-02,
932,1.20e-01,
933,-4.00e-02,
934,-4.00e-02,
935,1.20e-01,
936,-4.00e-02,
937,1.20e-01,
938,1.20e-01,
939,-4.00e-02,
940,1.20e-01,
941,-4.00e-02,
942,-4.00e-02,
943,8.00e-02,
944,-4.00e-02,
945,1.20e-01,
946,1.20e-01,
947,-4.00e-02,
948,1.20e-01,
949,-4.00e-02,
950,-4.00e-02,
951,1.20e-01,
952,-4.00e-02,
953,1.20e-01,
954,-4.00e-02,
955,1.20e-01,
956,-4.00e-02,
957,1.20e-01,
958,-4.00e-02,
959,1.20e-01,
960,-4.00e-02,
961,1.20e-01,
962,1.20e-01,
963,-4.00e-02,
964,1.20e-01,
965,-4.00e-02,
966,1.20e-01,
967,-4.00e-02,
968,-4.00e-02,
969,1.20e-01,
970,-4.00e-02,
971,1.20e-01,
972,-4.00e-02,
973,1.20e-01,
974,1.20e-01,
975,-4.00e-02,
976,-4.00e-02,
977,1.20e-01,
978,-4.00e-02,
979,1.20e-01,
980,1.20e-01,
981,-4.00e-02,
982,1.20e-01,
983,-4.00e-02,
984,-4.00e-02,
985,1.20e-01,
986,1.20e-01,
987,-4.00e-02,
988,-4.00e-02,
989,1.20e-01,
990,1.20e-01,
991,-4.00e-02,
992,1.20e-01,
993,-4.00e-02,
994,-4.00e-02,
995,1.20e-01,
996,-4.00e-02,
997,1.20e-01,
998,-4.00e-02,
999,6.44e+00,
1000,5.12e+00,
1001,4.92e+00,
1002,5.12e+00,
1003,4.88e+00,
1004,4.92e+00,
1005,5.20e+00,
1006,4.92e+00,
1007,5.20e+00,
1008,5.16e+00,
1009,4.92e+00,
1010,4.92e+00,
1011,5.16e+00,
1012,4.92e+00,
1013,5.20e+00,
1014,4.92e+00,
1015,5.16e+00,
1016,4.92e+00,
1017,5.20e+00,
1018,5.20e+00,
1019,4.92e+00,
1020,4.92e+00,
1021,5.20e+00,
1022,5.20e+00,
1023,4.92e+00,
1024,5.20e+00,
1025,4.92e+00,
1026,4.92e+00,
1027,5.20e+00,
1028,5.16e+00,
1029,-1.28e+00,
1030,0.00e+00,
1031,1.60e-01,
1032,1.60e-01,
1033,0.00e+00,
1034,1.60e-01,
1035,0.00e+00,
1036,0.00e+00,
1037,1.60e-01,
1038,1.60e-01,
1039,0.00e+00,
1040,1.60e-01,
1041,-4.00e-02,
1042,1.60e-01,
1043,0.00e+00,
1044,0.00e+00,
1045,1.60e-01,
1046,1.20e-01,
1047,-4.00e-02,
1048,1.20e-01,
1049,-4.00e-02,
1050,1.20e-01,
1051,-4.00e-02,
1052,-4.00e-02,
1053,1.60e-01,
1054,1.20e-01,
1055,-4.00e-02,
1056,-4.00e-02,
1057,1.20e-01,
1058,-4.00e-02,
1059,1.20e-01,
1060,-4.00e-02,
1061,1.20e-01,
1062,-4.00e-02,
1063,1.20e-01,
1064,-4.00e-02,
1065,1.20e-01,
1066,-4.00e-02,
1067,1.20e-01,
1068,-4.00e-02,
1069,1.20e-01,
1070,-4.00e-02,
1071,1.20e-01,
1072,-4.00e-02,
1073,1.20e-01,
1074,-4.00e-02,
1075,1.20e-01,
1076,-4.00e-02,
1077,1.20e-01,
1078,8.00e-02,
1079,-4.00e-02,
1080,-4.00e-02,
1081,1.20e-01,
1082,-4.00e-02,
1083,1.20e-01,
1084,-4.00e-02,
1085,1.20e-01,
1086,8.00e-02,
1087,-4.00e-02,
1088,-4.00e-02,
1089,1.20e-01,
1090,-4.00e-02,
1091,1.20e-01,
1092,1.20e-01,
1093,-4.00e-02,
1094,-4.00e-02,
1095,1.20e-01,
1096,-4.00e-02,
1097,1.20e-01,
1098,-4.00e-02,
1099,1.20e-01,
1100,-4.00e-02,
1101,1.20e-01,
1102,-4.00e-02,
1103,1.20e-01,
1104,-4.00e-02,
1105,1.20e-01,
1106,-4.00e-02,
1107,1.20e-01,
1108,-4.00e-02,
1109,1.20e-01,
1110,-4.00e-02,
1111,1.20e-01,
1112,-4.00e-02,
1113,1.20e-01,
1114,-4.00e-02,
1115,1.20e-01,
1116,-4.00e-02,
1117,1.20e-01,
1118,-4.00e-02,
1119,1.20e-01,
1120,-4.00e-02,
1121,1.20e-01,
1122,-4.00e-02,
1123,1.20e-01,
1124,1.20e-01,
1125,-4.00e-02,
1126,-4.00e-02,
1127,8.00e-02,
1128,-4.00e-02,
1129,1.20e-01,
1130,1.20e-01,
1131,-4.00e-02,
1132,1.20e-01,
1133,-4.00e-02,
1134,-4.00e-02,
1135,1.20e-01,
1136,-4.00e-02,
1137,1.20e-01,
1138,1.20e-01,
1139,-4.00e-02,
1140,-4.00e-02,
1141,1.20e-01,
1142,1.20e-01,
1143,-4.00e-02,
1144,-4.00e-02,
1145,1.20e-01,
1146,1.20e-01,
1147,-4.00e-02,
1148,-4.00e-02,
1149,1.20e-01,
1150,1.20e-01,
1151,-4.00e-02,
1152,-4.00e-02,
1153,1.20e-01,
1154,-4.00e-02,
1155,1.20e-01,
1156,-4.00e-02,
1157,1.20e-01,
1158,1.20e-01,
1159,-4.00e-02,
1160,-4.00e-02,
1161,1.20e-01,
1162,1.20e-01,
1163,-4.00e-02,
1164,-4.00e-02,
1165,1.20e-01,
1166,1.20e-01,
1167,-4.00e-02,
1168,-4.00e-02,
1169,1.20e-01,
1170,-4.00e-02,
1171,1.20e-01,
1172,1.20e-01,
1173,-4.00e-02,
1174,1.20e-01,
1175,-4.00e-02,
1176,-4.00e-02,
1177,1.20e-01,
1178,-4.00e-02,
1179,1.60e-01,
1180,1.20e-01,
1181,-4.00e-02,
1182,1.20e-01,
1183,-4.00e-02,
1184,1.20e-01,
1185,-4.00e-02,
1186,1.20e-01,
1187,-4.00e-02,
1188,1.20e-01,
1189,-4.00e-02,
1190,-4.00e-02,
1191,1.20e-01,
1192,-4.00e-02,
1193,1.20e-01,
1194,1.20e-01,
1195,-4.00e-02,
1196,1.20e-01,
1197,-4.00e-02,
1198,1.20e-01,
1199,-4.00e-02,
